…
``` r
pols_data |>
   janitor::clean_names() |> #clean-up names to r suitable names
   separate(mon, into = c("year", "month", "day"), sep = "-") |> #separate the mon variable by "-"
   mutate(
     month = as.numeric(month), #change the char variable month to numeric
     month = month.name[month]) |> #translate numeric month number to full month names
  select(-prez_dem, -prez_gop) |> #remove the prez_dem and prez_gop variables
   pivot_longer(
    gov_gop:rep_dem, #select the remaining columns
     values_to = "president") |> #and assign the values of these variables to a new variable "president"
      select(-day) #remove the day variable
```

    ## # A tibble: 4,932 × 4
    ##    year  month    name    president
    ##    <chr> <chr>    <chr>       <dbl>
    ##  1 1947  January  gov_gop        23
    ##  2 1947  January  sen_gop        51
    ##  3 1947  January  rep_gop       253
    ##  4 1947  January  gov_dem        23
    ##  5 1947  January  sen_dem        45
    ##  6 1947  January  rep_dem       198
    ##  7 1947  February gov_gop        23
    ##  8 1947  February sen_gop        51
    ##  9 1947  February rep_gop       253
    ## 10 1947  February gov_dem        23
    ## # ℹ 4,922 more rows
…
### Clean the snp data

``` r
snp_data|>
   janitor::clean_names() |> #clean-up names to r suitable names
   separate(date, into = c("year", "month", "day"), sep = "/") |>
  arrange(year, month)
```

    ## # A tibble: 787 × 4
    ##    year  month day   close
    ##    <chr> <chr> <chr> <dbl>
    ##  1 1     2     15    1995.
    ##  2 1     2     14    1783.
    ##  3 1     2     13    1498.
    ##  4 1     2     09     826.
    ##  5 1     2     08    1379.
    ##  6 1     2     04    1131.
    ##  7 1     2     03     856.
    ##  8 1     2     02    1130.
    ##  9 1     2     01    1366.
    ## 10 1     2     98     980.
    ## # ℹ 777 more rows
…
